…
You may want to select certain rows more specifically, perhaps by which team they play for, or by their age. To do so, use the filter() function which takes a conditional statement as its argument and displays only the rows that evaluate to true.

# this will only return the FIFA players that play for Real Madrid younger than 30
fifa_bio %>%
  select(Name, Age, Club) %>%
  filter(Club == "Real Madrid" & Age < 30) %>%
# by using the arrange() function, you can display the filtered players in age-order.
  arrange(Age)

## # A tibble: 27 x 3
##    Name              Age Club       
##    <chr>           <dbl> <chr>      
##  1 Vincius Jnior    17 Real Madrid
##  2 Fran Garca        18 Real Madrid
##  3 F. Valverde        19 Real Madrid
##  4 Sergio Lpez       19 Real Madrid
##  5 Manu Hernando      19 Real Madrid
##  6 Dani Gmez         19 Real Madrid
##  7 Cristo Gonzlez    20 Real Madrid
##  8 F. Feuillassier    20 Real Madrid
##  9 L. Zidane          20 Real Madrid
## 10 Dani Ceballos      21 Real Madrid
## #  with 17 more rows
…
fifa_data <- fifa_bio %>%
  left_join(fifa_stats, by=c("Name" = "Name", "ID" = "ID"))

Now that the associated club is within the same dataset as all of the stats, we can take a summary of the data by averaging the 10 statistics (BallControl, Dribbling, Strength, SprintSpeed, Acceleration, Interceptions, Stamina, Vision, Marking, Balance) for each team by aggregating the data using group_by() and summarize().

fifa_data %>%
  group_by(Club) %>%
  summarise(BallControl=mean(BallControl), Dribbling=mean(Dribbling), 
            Strength=mean(Strength), SprintSpeed=mean(SprintSpeed), 
            Acceleration=mean(Acceleration), Interceptions=mean(Interceptions), 
            Stamina=mean(Stamina), Vision=mean(Vision), Marking=mean(Marking), 
            Balance=mean(Balance))

## # A tibble: 652 x 11
##    Club  BallControl Dribbling Strength SprintSpeed Acceleration
##    <chr>       <dbl>     <dbl>    <dbl>       <dbl>        <dbl>
##  1 1. F        56.8      54.2     66.2        64.7         64  
##  2 1. F        53.4      49.8     66.6        64.7         62.3
##  3 1. F        62.3      58.0     66.4        64.2         64.2
##  4 1. F        57.0      51.3     70.2        64.3         62.9
##  5 1. F        61.9      58.2     65.3        65.3         64.7
##  6 1. F        60.0      56.6     68.8        65.7         63.6
##  7 1. F        60.9      59.8     68.2        69.2         68.9
##  8 Aalb        56.7      54       65.4        65.5         65.4
##  9 Aarh        55.9      52.5     64.9        68           66.6
## 10 Aber        56.6      54.7     64.3        66.0         64.5
## #  with 642 more rows, and 5 more variables: Interceptions <dbl>,
## #   Stamina <dbl>, Vision <dbl>, Marking <dbl>, Balance <dbl>
…
This plot shows that as age increases, average stamina of a futbol player decreases. This is one of the many helpful charts that are able to be made through the power of R. Data representation such as this is why R is important to data science, and knowing how to manipulate data in these ways is helpful for showing data to people to convince them of a trend.

There are many other graphs you can make in R using ggplot, and it is essential to know how to make these graphs as visual data is the easiest way to convey a point or trend. Lets keep manipulating the football player stamina vs age statistics to see which graph conveys the trend that as age increases average stamina decreases. But first lets check if there are any missing entities in our table, as this may shift the data being displayed.

summarized_data <- fifa_data %>%
  group_by(Age) %>%
  summarise(avg_stamina=mean(Stamina))
summarized_data

## # A tibble: 29 x 2
##      Age avg_stamina
##    <dbl>       <dbl>
##  1    16        50.4
##  2    17        NA  
##  3    18        53.7
##  4    19        NA  
##  5    20        NA  
##  6    21        NA  
##  7    22        NA  
##  8    23        NA  
##  9    24        NA  
## 10    25        NA  
## #  with 19 more rows
…
summarized_data

## # A tibble: 29 x 2
##      Age avg_stamina
##    <dbl>       <dbl>
##  1    16        50.4
##  2    17        NA  
##  3    18        53.7
##  4    19        NA  
##  5    20        NA  
##  6    21        NA  
##  7    22        NA  
##  8    23        NA  
##  9    24        NA  
## 10    25        NA  
## #  with 19 more rows
…
Here we display the average stamina across age in a bar graph. This is a much more effective display of data as it is easier to see how average stamina changes as age grows older. Knowing which type of graph to use is essential for displaying data effectively. I highly suggest reading more on the subject through these sources. https://www.skillsyouneed.com/num/graphs-charts.html and https://blog.hubspot.com/marketing/types-of-graphs-for-data-visualization

Now were going to be moving onto obtaining specific teams through regular expressions and string manipulation.

clubs <- fifa_data %>% 
  group_by(Club) %>%
  summarize(Players = n_distinct(Name))

clubs

## # A tibble: 652 x 2
##    Club                  Players
##    <chr>                   <int>
##  1 1. FC Heidenheim 1846      28
##  2 1. FC Kaiserslautern       26
##  3 1. FC Kln                 28
##  4 1. FC Magdeburg            26
##  5 1. FC Nrnberg             29
##  6 1. FC Union Berlin         28
##  7 1. FSV Mainz 05            32
##  8 Aalborg BK                 27
##  9 Aarhus GF                  27
## 10 Aberdeen                   27
## #  with 642 more rows

Here we have a table that shows us each club and the amount of players on each club. First were going to omit the NA club as that data is not useful to us, and this will make the data more tidy.

library(stringr)
clubs %>%
  drop_na(Club)

## # A tibble: 651 x 2
##    Club                  Players
##    <chr>                   <int>
##  1 1. FC Heidenheim 1846      28
##  2 1. FC Kaiserslautern       26
##  3 1. FC Kln                 28
##  4 1. FC Magdeburg            26
##  5 1. FC Nrnberg             29
##  6 1. FC Union Berlin         28
##  7 1. FSV Mainz 05            32
##  8 Aalborg BK                 27
##  9 Aarhus GF                  27
## 10 Aberdeen                   27
## #  with 641 more rows
…
